INDEX VERSION 1.126+C:\Users\Lucas\Documents\Programação\Eclipse\GDGufscar\.metadata\.plugins\org.eclipse.jdt.core
3730526690.index
1789169078.index
4251467834.index
1799356524.index
3270002986.index
2594609853.index
3991468379.index
1674092712.index
3000053649.index
2877109961.index
29472067.index
2995743601.index
3277441100.index
3585733931.index
